
newmtl WeightPlat
Ka  0.6 0.6 0.6
Kd  0.6 0.6 0.6
Ks  0.9 0.9 0.9
d  1.0
Ns  0.0
illum 2




newmtl TestMat
Ka  0.6 0.6 0.6
Kd  0.6 0.6 0.6
Ks  0.9 0.9 0.9
d  1.0
Ns  0.0
illum 2
map_Kd ptest1.psd



newmtl DonutC
Ka  0.6 0.6 0.6
Kd  0.6 0.6 0.6
Ks  0.9 0.9 0.9
d  1.0
Ns  0.0
illum 2




newmtl HhogColor
Ka  0.6 0.6 0.6
Kd  0.6 0.6 0.6
Ks  0.9 0.9 0.9
d  1.0
Ns  0.0
illum 2




newmtl CrocoMat
Ka  0.6 0.6 0.6
Kd  0.6 0.6 0.6
Ks  0.9 0.9 0.9
d  1.0
Ns  0.0
illum 2




newmtl Default-Material
Ka  0.6 0.6 0.6
Kd  0.6 0.6 0.6
Ks  0.9 0.9 0.9
d  1.0
Ns  0.0
illum 2




newmtl Pavement
Ka  0.6 0.6 0.6
Kd  0.6 0.6 0.6
Ks  0.9 0.9 0.9
d  1.0
Ns  0.0
illum 2




newmtl Material.003
Ka  0.6 0.6 0.6
Kd  0.6 0.6 0.6
Ks  0.9 0.9 0.9
d  1.0
Ns  0.0
illum 2




newmtl Material.001
Ka  0.6 0.6 0.6
Kd  0.6 0.6 0.6
Ks  0.9 0.9 0.9
d  1.0
Ns  0.0
illum 2




newmtl Material.005
Ka  0.6 0.6 0.6
Kd  0.6 0.6 0.6
Ks  0.9 0.9 0.9
d  1.0
Ns  0.0
illum 2




newmtl Material.004
Ka  0.6 0.6 0.6
Kd  0.6 0.6 0.6
Ks  0.9 0.9 0.9
d  1.0
Ns  0.0
illum 2




newmtl Material
Ka  0.6 0.6 0.6
Kd  0.6 0.6 0.6
Ks  0.9 0.9 0.9
d  1.0
Ns  0.0
illum 2




newmtl Material.006
Ka  0.6 0.6 0.6
Kd  0.6 0.6 0.6
Ks  0.9 0.9 0.9
d  1.0
Ns  0.0
illum 2



