%YAML 1.1
%TAG !u! tag:unity3d.com,2011:
--- !u!74 &7400000
AnimationClip:
  m_ObjectHideFlags: 0
  m_PrefabParentObject: {fileID: 0}
  m_PrefabInternal: {fileID: 0}
  m_Name: ItemStay
  serializedVersion: 6
  m_Legacy: 0
  m_Compressed: 0
  m_UseHighQualityCurve: 1
  m_RotationCurves:
  - curve:
      serializedVersion: 2
      m_Curve:
      - time: 0
        value: {x: -0, y: -0, z: -0, w: -1}
        inSlope: {x: 0, y: -1.57068849, z: 0, w: .0205636006}
        outSlope: {x: 0, y: -1.57068849, z: 0, w: .0205636006}
        tangentMode: 0
      - time: .0166666675
        value: {x: -0, y: -.0261781421, z: -0, w: -.999657273}
        inSlope: {x: 0, y: -1.57021928, z: 0, w: .0411218368}
        outSlope: {x: 0, y: -1.57021928, z: 0, w: .0411218368}
        tangentMode: 0
      - time: .0333333351
        value: {x: -0, y: -.0523406453, z: -0, w: -.998629272}
        inSlope: {x: 0, y: -1.56873894, z: 0, w: .0822222158}
        outSlope: {x: 0, y: -1.56873894, z: 0, w: .0822222158}
        tangentMode: 0
      - time: .0500000045
        value: {x: -0, y: -.0784694478, z: -0, w: -.996916533}
        inSlope: {x: 0, y: -1.56617522, z: 0, w: .123277903}
        outSlope: {x: 0, y: -1.56617522, z: 0, w: .123277903}
        tangentMode: 0
      - time: .0666666701
        value: {x: -0, y: -.104546487, z: -0, w: -.994520009}
        inSlope: {x: 0, y: -1.56252933, z: 0, w: .164258495}
        outSlope: {x: 0, y: -1.56252933, z: 0, w: .164258495}
        tangentMode: 0
      - time: .0833333358
        value: {x: -0, y: -.130553752, z: -0, w: -.99144125}
        inSlope: {x: 0, y: -1.55780339, z: 0, w: .205133572}
        outSlope: {x: 0, y: -1.55780339, z: 0, w: .205133572}
        tangentMode: 0
      - time: .100000001
        value: {x: -0, y: -.156473264, z: -0, w: -.987682223}
        inSlope: {x: 0, y: -1.55200124, z: 0, w: .24587813}
        outSlope: {x: 0, y: -1.55200124, z: 0, w: .24587813}
        tangentMode: 0
      - time: .116666667
        value: {x: -0, y: -.182287127, z: -0, w: -.983245313}
        inSlope: {x: 0, y: -1.54512644, z: 0, w: .286458075}
        outSlope: {x: 0, y: -1.54512644, z: 0, w: .286458075}
        tangentMode: 0
      - time: .13333334
        value: {x: -0, y: -.207977489, z: -0, w: -.978133619}
        inSlope: {x: 0, y: -1.53718221, z: 0, w: .326846778}
        outSlope: {x: 0, y: -1.53718221, z: 0, w: .326846778}
        tangentMode: 0
      - time: .150000006
        value: {x: -0, y: -.233526543, z: -0, w: -.972350419}
        inSlope: {x: 0, y: -1.52817488, z: 0, w: .367019206}
        outSlope: {x: 0, y: -1.52817488, z: 0, w: .367019206}
        tangentMode: 0
      - time: .166666672
        value: {x: -0, y: -.258916646, z: -0, w: -.965899646}
        inSlope: {x: 0, y: -1.51811028, z: 0, w: .406941205}
        outSlope: {x: 0, y: -1.51811028, z: 0, w: .406941205}
        tangentMode: 0
      - time: .183333337
        value: {x: -0, y: -.284130216, z: -0, w: -.958785713}
        inSlope: {x: 0, y: -1.50699663, z: 0, w: .446589619}
        outSlope: {x: 0, y: -1.50699663, z: 0, w: .446589619}
        tangentMode: 0
      - time: .200000003
        value: {x: -0, y: -.309149861, z: -0, w: -.951013327}
        inSlope: {x: 0, y: -1.49483812, z: 0, w: .485934079}
        outSlope: {x: 0, y: -1.49483812, z: 0, w: .485934079}
        tangentMode: 0
      - time: .216666669
        value: {x: -0, y: -.333958149, z: -0, w: -.942587912}
        inSlope: {x: 0, y: -1.48164439, z: 0, w: .524945915}
        outSlope: {x: 0, y: -1.48164439, z: 0, w: .524945915}
        tangentMode: 0
      - time: .233333334
        value: {x: -0, y: -.358538002, z: -0, w: -.933515131}
        inSlope: {x: 0, y: -1.46742868, z: 0, w: .563600123}
        outSlope: {x: 0, y: -1.46742868, z: 0, w: .563600123}
        tangentMode: 0
      - time: .25
        value: {x: -0, y: -.382872432, z: -0, w: -.923801243}
        inSlope: {x: 0, y: -1.4521966, z: 0, w: .601867795}
        outSlope: {x: 0, y: -1.4521966, z: 0, w: .601867795}
        tangentMode: 0
      - time: .266666681
        value: {x: -0, y: -.406944573, z: -0, w: -.913452864}
        inSlope: {x: 0, y: -1.43595874, z: 0, w: .639722407}
        outSlope: {x: 0, y: -1.43595874, z: 0, w: .639722407}
        tangentMode: 0
      - time: .283333361
        value: {x: -0, y: -.430737764, z: -0, w: -.902477145}
        inSlope: {x: 0, y: -1.41872644, z: 0, w: .677135587}
        outSlope: {x: 0, y: -1.41872644, z: 0, w: .677135587}
        tangentMode: 0
      - time: .300000042
        value: {x: -0, y: -.454235494, z: -0, w: -.890881658}
        inSlope: {x: 0, y: -1.40051508, z: 0, w: .71408391}
        outSlope: {x: 0, y: -1.40051508, z: 0, w: .71408391}
        tangentMode: 0
      - time: .316666722
        value: {x: -0, y: -.477421641, z: -0, w: -.878674328}
        inSlope: {x: 0, y: -1.38133466, z: 0, w: .750538707}
        outSlope: {x: 0, y: -1.38133466, z: 0, w: .750538707}
        tangentMode: 0
      - time: .333333403
        value: {x: -0, y: -.500280023, z: -0, w: -.865863681}
        inSlope: {x: 0, y: -1.36119843, z: 0, w: .786474884}
        outSlope: {x: 0, y: -1.36119843, z: 0, w: .786474884}
        tangentMode: 0
      - time: .350000083
        value: {x: -0, y: -.522794962, z: -0, w: -.852458477}
        inSlope: {x: 0, y: -1.34011996, z: 0, w: .821867466}
        outSlope: {x: 0, y: -1.34011996, z: 0, w: .821867466}
        tangentMode: 0
      - time: .366666764
        value: {x: -0, y: -.544950724, z: -0, w: -.838468075}
        inSlope: {x: 0, y: -1.3181169, z: 0, w: .85669148}
        outSlope: {x: 0, y: -1.3181169, z: 0, w: .85669148}
        tangentMode: 0
      - time: .383333445
        value: {x: -0, y: -.566732228, z: -0, w: -.823902071}
        inSlope: {x: 0, y: -1.29520547, z: 0, w: .890923619}
        outSlope: {x: 0, y: -1.29520547, z: 0, w: .890923619}
        tangentMode: 0
      - time: .400000125
        value: {x: -0, y: -.588124275, z: -0, w: -.808770597}
        inSlope: {x: 0, y: -1.2713964, z: 0, w: .924538791}
        outSlope: {x: 0, y: -1.2713964, z: 0, w: .924538791}
        tangentMode: 0
      - time: .416666806
        value: {x: -0, y: -.609112144, z: -0, w: -.793084085}
        inSlope: {x: 0, y: -1.24671113, z: 0, w: .957512021}
        outSlope: {x: 0, y: -1.24671113, z: 0, w: .957512021}
        tangentMode: 0
      - time: .433333486
        value: {x: -0, y: -.629681349, z: -0, w: -.776853502}
        inSlope: {x: 0, y: -1.22116756, z: 0, w: .989820123}
        outSlope: {x: 0, y: -1.22116756, z: 0, w: .989820123}
        tangentMode: 0
      - time: .450000167
        value: {x: -0, y: -.649817765, z: -0, w: -.760090053}
        inSlope: {x: 0, y: -1.1947819, z: 0, w: 1.02144337}
        outSlope: {x: 0, y: -1.1947819, z: 0, w: 1.02144337}
        tangentMode: 0
      - time: .466666847
        value: {x: -0, y: -.669507444, z: -0, w: -.742805362}
        inSlope: {x: 0, y: -1.16756999, z: 0, w: 1.05235672}
        outSlope: {x: 0, y: -1.16756999, z: 0, w: 1.05235672}
        tangentMode: 0
      - time: .483333528
        value: {x: -0, y: -.688736796, z: -0, w: -.725011468}
        inSlope: {x: 0, y: -1.1395545, z: 0, w: 1.08253789}
        outSlope: {x: 0, y: -1.1395545, z: 0, w: 1.08253789}
        tangentMode: 0
      - time: .500000179
        value: {x: -0, y: -.70749259, z: -0, w: -.706720769}
        inSlope: {x: 0, y: -1.11075747, z: 0, w: 1.11196983}
        outSlope: {x: 0, y: -1.11075747, z: 0, w: 1.11196983}
        tangentMode: 0
      - time: .51666683
        value: {x: -0, y: -.72576201, z: -0, w: -.687945843}
        inSlope: {x: 0, y: -1.08119774, z: 0, w: 1.14062834}
        outSlope: {x: 0, y: -1.08119774, z: 0, w: 1.14062834}
        tangentMode: 0
      - time: .53333348
        value: {x: -0, y: -.743532479, z: -0, w: -.668699861}
        inSlope: {x: 0, y: -1.05089402, z: 0, w: 1.1684947}
        outSlope: {x: 0, y: -1.05089402, z: 0, w: 1.1684947}
        tangentMode: 0
      - time: .550000131
        value: {x: -0, y: -.760791779, z: -0, w: -.648996055}
        inSlope: {x: 0, y: -1.01986802, z: 0, w: 1.19554925}
        outSlope: {x: 0, y: -1.01986802, z: 0, w: 1.19554925}
        tangentMode: 0
      - time: .566666782
        value: {x: -0, y: -.777528048, z: -0, w: -.628848255}
        inSlope: {x: 0, y: -.988146424, z: 0, w: 1.22177243}
        outSlope: {x: 0, y: -.988146424, z: 0, w: 1.22177243}
        tangentMode: 0
      - time: .583333433
        value: {x: -0, y: -.793729961, z: -0, w: -.608270347}
        inSlope: {x: 0, y: -.955748916, z: 0, w: 1.24714971}
        outSlope: {x: 0, y: -.955748916, z: 0, w: 1.24714971}
        tangentMode: 0
      - time: .600000083
        value: {x: -0, y: -.809386313, z: -0, w: -.587276638}
        inSlope: {x: 0, y: -.922695041, z: 0, w: 1.27165973}
        outSlope: {x: 0, y: -.922695041, z: 0, w: 1.27165973}
        tangentMode: 0
      - time: .616666734
        value: {x: -0, y: -.824486434, z: -0, w: -.565881729}
        inSlope: {x: 0, y: -.889010072, z: 0, w: 1.29528105}
        outSlope: {x: 0, y: -.889010072, z: 0, w: 1.29528105}
        tangentMode: 0
      - time: .633333385
        value: {x: -0, y: -.839019954, z: -0, w: -.544100642}
        inSlope: {x: 0, y: -.8547225, z: 0, w: 1.31800652}
        outSlope: {x: 0, y: -.8547225, z: 0, w: 1.31800652}
        tangentMode: 0
      - time: .650000036
        value: {x: -0, y: -.852977157, z: -0, w: -.521948218}
        inSlope: {x: 0, y: -.819857299, z: 0, w: 1.33982372}
        outSlope: {x: 0, y: -.819857299, z: 0, w: 1.33982372}
        tangentMode: 0
      - time: .666666687
        value: {x: -0, y: -.866348505, z: -0, w: -.499439895}
        inSlope: {x: 0, y: -.784430623, z: 0, w: 1.36070025}
        outSlope: {x: 0, y: -.784430623, z: 0, w: 1.36070025}
        tangentMode: 0
      - time: .683333337
        value: {x: -0, y: -.87912482, z: -0, w: -.476591587}
        inSlope: {x: 0, y: -.748471141, z: 0, w: 1.38063169}
        outSlope: {x: 0, y: -.748471141, z: 0, w: 1.38063169}
        tangentMode: 0
      - time: .699999988
        value: {x: -0, y: -.891297519, z: -0, w: -.453418881}
        inSlope: {x: 0, y: -.712009192, z: 0, w: 1.39961195}
        outSlope: {x: 0, y: -.712009192, z: 0, w: 1.39961195}
        tangentMode: 0
      - time: .716666639
        value: {x: -0, y: -.902858436, z: -0, w: -.429937899}
        inSlope: {x: 0, y: -.675069749, z: 0, w: 1.41762388}
        outSlope: {x: 0, y: -.675069749, z: 0, w: 1.41762388}
        tangentMode: 0
      - time: .73333329
        value: {x: -0, y: -.913799822, z: -0, w: -.406164795}
        inSlope: {x: 0, y: -.637672544, z: 0, w: 1.43464351}
        outSlope: {x: 0, y: -.637672544, z: 0, w: 1.43464351}
        tangentMode: 0
      - time: .74999994
        value: {x: -0, y: -.924114168, z: -0, w: -.382116497}
        inSlope: {x: 0, y: -.599848032, z: 0, w: 1.45066881}
        outSlope: {x: 0, y: -.599848032, z: 0, w: 1.45066881}
        tangentMode: 0
      - time: .766666591
        value: {x: -0, y: -.933794737, z: -0, w: -.357809216}
        inSlope: {x: 0, y: -.561624706, z: 0, w: 1.46569455}
        outSlope: {x: 0, y: -.561624706, z: 0, w: 1.46569455}
        tangentMode: 0
      - time: .783333242
        value: {x: -0, y: -.942834973, z: -0, w: -.333260059}
        inSlope: {x: 0, y: -.52302587, z: 0, w: 1.479702}
        outSlope: {x: 0, y: -.52302587, z: 0, w: 1.479702}
        tangentMode: 0
      - time: .799999893
        value: {x: -0, y: -.951228917, z: -0, w: -.308485866}
        inSlope: {x: 0, y: -.484083772, z: 0, w: 1.49268913}
        outSlope: {x: 0, y: -.484083772, z: 0, w: 1.49268913}
        tangentMode: 0
      - time: .816666543
        value: {x: -0, y: -.958971083, z: -0, w: -.283503801}
        inSlope: {x: 0, y: -.444825113, z: 0, w: 1.50463939}
        outSlope: {x: 0, y: -.444825113, z: 0, w: 1.50463939}
        tangentMode: 0
      - time: .833333194
        value: {x: -0, y: -.966056406, z: -0, w: -.258331269}
        inSlope: {x: 0, y: -.405273229, z: 0, w: 1.51554561}
        outSlope: {x: 0, y: -.405273229, z: 0, w: 1.51554561}
        tangentMode: 0
      - time: .849999845
        value: {x: -0, y: -.972480178, z: -0, w: -.23298566}
        inSlope: {x: 0, y: -.365458488, z: 0, w: 1.52541137}
        outSlope: {x: 0, y: -.365458488, z: 0, w: 1.52541137}
        tangentMode: 0
      - time: .866666496
        value: {x: -0, y: -.978238344, z: -0, w: -.207484275}
        inSlope: {x: 0, y: -.32541126, z: 0, w: 1.53421926}
        outSlope: {x: 0, y: -.32541126, z: 0, w: 1.53421926}
        tangentMode: 0
      - time: .883333147
        value: {x: -0, y: -.98332721, z: -0, w: -.181845069}
        inSlope: {x: 0, y: -.285156637, z: 0, w: 1.54196501}
        outSlope: {x: 0, y: -.285156637, z: 0, w: 1.54196501}
        tangentMode: 0
      - time: .899999797
        value: {x: -0, y: -.987743556, z: -0, w: -.156085491}
        inSlope: {x: 0, y: -.244724974, z: 0, w: 1.54865038}
        outSlope: {x: 0, y: -.244724974, z: 0, w: 1.54865038}
        tangentMode: 0
      - time: .916666448
        value: {x: -0, y: -.991484702, z: -0, w: -.130223438}
        inSlope: {x: 0, y: -.204143122, z: 0, w: 1.55426455}
        outSlope: {x: 0, y: -.204143122, z: 0, w: 1.55426455}
        tangentMode: 0
      - time: .933333099
        value: {x: -0, y: -.994548321, z: -0, w: -.104276724}
        inSlope: {x: 0, y: -.163441449, z: 0, w: 1.55881119}
        outSlope: {x: 0, y: -.163441449, z: 0, w: 1.55881119}
        tangentMode: 0
      - time: .94999975
        value: {x: -0, y: -.996932745, z: -0, w: -.0782631114}
        inSlope: {x: 0, y: -.122648597, z: 0, w: 1.56229174}
        outSlope: {x: 0, y: -.122648597, z: 0, w: 1.56229174}
        tangentMode: 0
      - time: .9666664
        value: {x: -0, y: -.998636603, z: -0, w: -.0522003807}
        inSlope: {x: 0, y: -.0817931443, z: 0, w: 1.56468701}
        outSlope: {x: 0, y: -.0817931443, z: 0, w: 1.56468701}
        tangentMode: 0
      - time: .983333051
        value: {x: -0, y: -.999659181, z: -0, w: -.0261069238}
        inSlope: {x: 0, y: -.0409019366, z: 0, w: 1.56599987}
        outSlope: {x: 0, y: -.0409019366, z: 0, w: 1.56599987}
        tangentMode: 0
      - time: .999999702
        value: {x: -0, y: -1, z: -0, w: -4.33125763e-07}
        inSlope: {x: 0, y: -3.61260027e-06, z: 0, w: 1.56625581}
        outSlope: {x: 0, y: -3.61260027e-06, z: 0, w: 1.56625581}
        tangentMode: 0
      - time: 1.01666641
        value: {x: -0, y: -.9996593, z: -0, w: .0261016488}
        inSlope: {x: 0, y: .0408697166, z: 0, w: 1.56543994}
        outSlope: {x: 0, y: .0408697166, z: 0, w: 1.56543994}
        tangentMode: 0
      - time: 1.03333306
        value: {x: -0, y: -.998637676, z: -0, w: .0521809421}
        inSlope: {x: 0, y: .0816947967, z: 0, w: 1.56355393}
        outSlope: {x: 0, y: .0816947967, z: 0, w: 1.56355393}
        tangentMode: 0
      - time: 1.04999971
        value: {x: -0, y: -.996936142, z: -0, w: .078220062}
        inSlope: {x: 0, y: .122444749, z: 0, w: 1.560619}
        outSlope: {x: 0, y: .122444749, z: 0, w: 1.560619}
        tangentMode: 0
      - time: 1.06666636
        value: {x: -0, y: -.994556189, z: -0, w: .104201525}
        inSlope: {x: 0, y: .163089186, z: 0, w: 1.55663013}
        outSlope: {x: 0, y: .163089186, z: 0, w: 1.55663013}
        tangentMode: 0
      - time: 1.08333302
        value: {x: -0, y: -.991499841, z: -0, w: .130107686}
        inSlope: {x: 0, y: .203601316, z: 0, w: 1.55159497}
        outSlope: {x: 0, y: .203601316, z: 0, w: 1.55159497}
        tangentMode: 0
      - time: 1.09999967
        value: {x: -0, y: -.987769485, z: -0, w: .15592131}
        inSlope: {x: 0, y: .243957862, z: 0, w: 1.54551041}
        outSlope: {x: 0, y: .243957862, z: 0, w: 1.54551041}
        tangentMode: 0
      - time: 1.11666632
        value: {x: -0, y: -.98336792, z: -0, w: .181624651}
        inSlope: {x: 0, y: .284130245, z: 0, w: 1.53837752}
        outSlope: {x: 0, y: .284130245, z: 0, w: 1.53837752}
        tangentMode: 0
      - time: 1.13333297
        value: {x: -0, y: -.978298485, z: -0, w: .207200512}
        inSlope: {x: 0, y: .324091613, z: 0, w: 1.53021598}
        outSlope: {x: 0, y: .324091613, z: 0, w: 1.53021598}
        tangentMode: 0
      - time: 1.14999962
        value: {x: -0, y: -.972564876, z: -0, w: .232631803}
        inSlope: {x: 0, y: .363818765, z: 0, w: 1.521029}
        outSlope: {x: 0, y: .363818765, z: 0, w: 1.521029}
        tangentMode: 0
      - time: 1.16666627
        value: {x: -0, y: -.966171205, z: -0, w: .25790143}
        inSlope: {x: 0, y: .403281242, z: 0, w: 1.51081562}
        outSlope: {x: 0, y: .403281242, z: 0, w: 1.51081562}
        tangentMode: 0
      - time: 1.18333292
        value: {x: -0, y: -.959122181, z: -0, w: .282992274}
        inSlope: {x: 0, y: .44245404, z: 0, w: 1.49958694}
        outSlope: {x: 0, y: .44245404, z: 0, w: 1.49958694}
        tangentMode: 0
      - time: 1.19999957
        value: {x: -0, y: -.951422751, z: -0, w: .307887614}
        inSlope: {x: 0, y: .481315732, z: 0, w: 1.48735166}
        outSlope: {x: 0, y: .481315732, z: 0, w: 1.48735166}
        tangentMode: 0
      - time: 1.21666622
        value: {x: -0, y: -.943078339, z: -0, w: .332570612}
        inSlope: {x: 0, y: .51983583, z: 0, w: 1.47411847}
        outSlope: {x: 0, y: .51983583, z: 0, w: 1.47411847}
        tangentMode: 0
      - time: 1.23333287
        value: {x: -0, y: -.934094906, z: -0, w: .357024848}
        inSlope: {x: 0, y: .557989419, z: 0, w: 1.45989299}
        outSlope: {x: 0, y: .557989419, z: 0, w: 1.45989299}
        tangentMode: 0
      - time: 1.24999952
        value: {x: -0, y: -.92447871, z: -0, w: .381233662}
        inSlope: {x: 0, y: .595754981, z: 0, w: 1.4446919}
        outSlope: {x: 0, y: .595754981, z: 0, w: 1.4446919}
        tangentMode: 0
      - time: 1.26666617
        value: {x: -0, y: -.914236426, z: -0, w: .405181199}
        inSlope: {x: 0, y: .633109212, z: 0, w: 1.42852879}
        outSlope: {x: 0, y: .633109212, z: 0, w: 1.42852879}
        tangentMode: 0
      - time: 1.28333282
        value: {x: -0, y: -.903375089, z: -0, w: .428851247}
        inSlope: {x: 0, y: .670021772, z: 0, w: 1.41140556}
        outSlope: {x: 0, y: .670021772, z: 0, w: 1.41140556}
        tangentMode: 0
      - time: 1.29999948
        value: {x: -0, y: -.891902387, z: -0, w: .45222801}
        inSlope: {x: 0, y: .706467748, z: 0, w: 1.393332}
        outSlope: {x: 0, y: .706467748, z: 0, w: 1.393332}
        tangentMode: 0
      - time: 1.31666613
        value: {x: -0, y: -.879826188, z: -0, w: .475295603}
        inSlope: {x: 0, y: .742430806, z: 0, w: 1.37432766}
        outSlope: {x: 0, y: .742430806, z: 0, w: 1.37432766}
        tangentMode: 0
      - time: 1.33333278
        value: {x: -0, y: -.867154717, z: -0, w: .498038888}
        inSlope: {x: 0, y: .777882457, z: 0, w: 1.35440421}
        outSlope: {x: 0, y: .777882457, z: 0, w: 1.35440421}
        tangentMode: 0
      - time: 1.34999943
        value: {x: -0, y: -.853896797, z: -0, w: .520442367}
        inSlope: {x: 0, y: .812801301, z: 0, w: 1.33357418}
        outSlope: {x: 0, y: .812801301, z: 0, w: 1.33357418}
        tangentMode: 0
      - time: 1.36666608
        value: {x: -0, y: -.840061367, z: -0, w: .542491317}
        inSlope: {x: 0, y: .847164035, z: 0, w: 1.31185889}
        outSlope: {x: 0, y: .847164035, z: 0, w: 1.31185889}
        tangentMode: 0
      - time: 1.38333273
        value: {x: -0, y: -.825658023, z: -0, w: .564170957}
        inSlope: {x: 0, y: .880947351, z: 0, w: 1.28926039}
        outSlope: {x: 0, y: .880947351, z: 0, w: 1.28926039}
        tangentMode: 0
      - time: 1.39999938
        value: {x: -0, y: -.810696483, z: -0, w: .585466623}
        inSlope: {x: 0, y: .914129853, z: 0, w: 1.2658}
        outSlope: {x: 0, y: .914129853, z: 0, w: 1.2658}
        tangentMode: 0
      - time: 1.41666603
        value: {x: -0, y: -.795187056, z: -0, w: .60636425}
        inSlope: {x: 0, y: .946684778, z: 0, w: 1.24148667}
        outSlope: {x: 0, y: .946684778, z: 0, w: 1.24148667}
        tangentMode: 0
      - time: 1.43333268
        value: {x: -0, y: -.779140353, z: -0, w: .626849473}
        inSlope: {x: 0, y: .978606701, z: 0, w: 1.21635437}
        outSlope: {x: 0, y: .978606701, z: 0, w: 1.21635437}
        tangentMode: 0
      - time: 1.44999933
        value: {x: -0, y: -.762566864, z: -0, w: .646909356}
        inSlope: {x: 0, y: 1.00986159, z: 0, w: 1.19041204}
        outSlope: {x: 0, y: 1.00986159, z: 0, w: 1.19041204}
        tangentMode: 0
      - time: 1.46666598
        value: {x: -0, y: -.745478332, z: -0, w: .666529834}
        inSlope: {x: 0, y: 1.04042804, z: 0, w: 1.16366673}
        outSlope: {x: 0, y: 1.04042804, z: 0, w: 1.16366673}
        tangentMode: 0
      - time: 1.48333263
        value: {x: -0, y: -.727885962, z: -0, w: .685698211}
        inSlope: {x: 0, y: 1.07029533, z: 0, w: 1.13614726}
        outSlope: {x: 0, y: 1.07029533, z: 0, w: 1.13614726}
        tangentMode: 0
      - time: 1.49999928
        value: {x: -0, y: -.709801853, z: -0, w: .704401374}
        inSlope: {x: 0, y: 1.09942782, z: 0, w: 1.1078589}
        outSlope: {x: 0, y: 1.09942782, z: 0, w: 1.1078589}
        tangentMode: 0
      - time: 1.51666594
        value: {x: -0, y: -.691238403, z: -0, w: .722626805}
        inSlope: {x: 0, y: 1.12782168, z: 0, w: 1.07883561}
        outSlope: {x: 0, y: 1.12782168, z: 0, w: 1.07883561}
        tangentMode: 0
      - time: 1.53333259
        value: {x: -0, y: -.672207832, z: -0, w: .740362525}
        inSlope: {x: 0, y: 1.15546811, z: 0, w: 1.04910064}
        outSlope: {x: 0, y: 1.15546811, z: 0, w: 1.04910064}
        tangentMode: 0
      - time: 1.54999924
        value: {x: -0, y: -.652722836, z: -0, w: .757596791}
        inSlope: {x: 0, y: 1.1823225, z: 0, w: 1.01865387}
        outSlope: {x: 0, y: 1.1823225, z: 0, w: 1.01865387}
        tangentMode: 0
      - time: 1.56666589
        value: {x: -0, y: -.632797122, z: -0, w: .774317622}
        inSlope: {x: 0, y: 1.20837569, z: 0, w: .987524152}
        outSlope: {x: 0, y: 1.20837569, z: 0, w: .987524152}
        tangentMode: 0
      - time: 1.58333254
        value: {x: -0, y: -.612443686, z: -0, w: .790514231}
        inSlope: {x: 0, y: 1.23362422, z: 0, w: .955739975}
        outSlope: {x: 0, y: 1.23362422, z: 0, w: .955739975}
        tangentMode: 0
      - time: 1.59999919
        value: {x: -0, y: -.591676354, z: -0, w: .80617559}
        inSlope: {x: 0, y: 1.25803769, z: 0, w: .923312008}
        outSlope: {x: 0, y: 1.25803769, z: 0, w: .923312008}
        tangentMode: 0
      - time: 1.61666584
        value: {x: -0, y: -.570509136, z: -0, w: .821291268}
        inSlope: {x: 0, y: 1.2816, z: 0, w: .890263557}
        outSlope: {x: 0, y: 1.2816, z: 0, w: .890263557}
        tangentMode: 0
      - time: 1.63333249
        value: {x: -0, y: -.548956394, z: -0, w: .835851014}
        inSlope: {x: 0, y: 1.30430222, z: 0, w: .856617928}
        outSlope: {x: 0, y: 1.30430222, z: 0, w: .856617928}
        tangentMode: 0
      - time: 1.64999914
        value: {x: -0, y: -.527032435, z: -0, w: .849845171}
        inSlope: {x: 0, y: 1.32614088, z: 0, w: .822407186}
        outSlope: {x: 0, y: 1.32614088, z: 0, w: .822407186}
        tangentMode: 0
      - time: 1.66666579
        value: {x: -0, y: -.504751742, z: -0, w: .863264561}
        inSlope: {x: 0, y: 1.34707999, z: 0, w: .787640333}
        outSlope: {x: 0, y: 1.34707999, z: 0, w: .787640333}
        tangentMode: 0
      - time: 1.68333244
        value: {x: -0, y: -.482129812, z: -0, w: .876099825}
        inSlope: {x: 0, y: 1.36710262, z: 0, w: .75233531}
        outSlope: {x: 0, y: 1.36710262, z: 0, w: .75233531}
        tangentMode: 0
      - time: 1.69999909
        value: {x: -0, y: -.459181696, z: -0, w: .888342381}
        inSlope: {x: 0, y: 1.38621974, z: 0, w: .716531396}
        outSlope: {x: 0, y: 1.38621974, z: 0, w: .716531396}
        tangentMode: 0
      - time: 1.71666574
        value: {x: -0, y: -.435922533, z: -0, w: .899984181}
        inSlope: {x: 0, y: 1.4043988, z: 0, w: .680244625}
        outSlope: {x: 0, y: 1.4043988, z: 0, w: .680244625}
        tangentMode: 0
      - time: 1.7333324
        value: {x: -0, y: -.412368447, z: -0, w: .911017179}
        inSlope: {x: 0, y: 1.42163563, z: 0, w: .643498302}
        outSlope: {x: 0, y: 1.42163563, z: 0, w: .643498302}
        tangentMode: 0
      - time: 1.74999905
        value: {x: -0, y: -.388534725, z: -0, w: .921434104}
        inSlope: {x: 0, y: 1.43793011, z: 0, w: .606321096}
        outSlope: {x: 0, y: 1.43793011, z: 0, w: .606321096}
        tangentMode: 0
      - time: 1.7666657
        value: {x: -0, y: -.364437491, z: -0, w: .931227863}
        inSlope: {x: 0, y: 1.45324731, z: 0, w: .568728983}
        outSlope: {x: 0, y: 1.45324731, z: 0, w: .568728983}
        tangentMode: 0
      - time: 1.78333235
        value: {x: -0, y: -.340093195, z: -0, w: .940391719}
        inSlope: {x: 0, y: 1.46759534, z: 0, w: .530755997}
        outSlope: {x: 0, y: 1.46759534, z: 0, w: .530755997}
        tangentMode: 0
      - time: 1.799999
        value: {x: -0, y: -.315517694, z: -0, w: .948919713}
        inSlope: {x: 0, y: 1.4809581, z: 0, w: .492421865}
        outSlope: {x: 0, y: 1.4809581, z: 0, w: .492421865}
        tangentMode: 0
      - time: 1.81666565
        value: {x: -0, y: -.290727973, z: -0, w: .956805766}
        inSlope: {x: 0, y: 1.49331415, z: 0, w: .45374614}
        outSlope: {x: 0, y: 1.49331415, z: 0, w: .45374614}
        tangentMode: 0
      - time: 1.8333323
        value: {x: -0, y: -.265740603, z: -0, w: .964044571}
        inSlope: {x: 0, y: 1.5046804, z: 0, w: .41476649}
        outSlope: {x: 0, y: 1.5046804, z: 0, w: .41476649}
        tangentMode: 0
      - time: 1.84999895
        value: {x: -0, y: -.240572006, z: -0, w: .970631301}
        inSlope: {x: 0, y: 1.51505125, z: 0, w: .375506043}
        outSlope: {x: 0, y: 1.51505125, z: 0, w: .375506043}
        tangentMode: 0
      - time: 1.8666656
        value: {x: -0, y: -.215238944, z: -0, w: .976561427}
        inSlope: {x: 0, y: 1.5243845, z: 0, w: .335980952}
        outSlope: {x: 0, y: 1.5243845, z: 0, w: .335980952}
        tangentMode: 0
      - time: 1.88333225
        value: {x: -0, y: -.18975924, z: -0, w: .981830657}
        inSlope: {x: 0, y: 1.53268671, z: 0, w: .296221673}
        outSlope: {x: 0, y: 1.53268671, z: 0, w: .296221673}
        tangentMode: 0
      - time: 1.8999989
        value: {x: -0, y: -.164149433, z: -0, w: .986435473}
        inSlope: {x: 0, y: 1.53996682, z: 0, w: .256260276}
        outSlope: {x: 0, y: 1.53996682, z: 0, w: .256260276}
        tangentMode: 0
      - time: 1.91666555
        value: {x: -0, y: -.138427064, z: -0, w: .990372658}
        inSlope: {x: 0, y: 1.5462265, z: 0, w: .216118306}
        outSlope: {x: 0, y: 1.5462265, z: 0, w: .216118306}
        tangentMode: 0
      - time: 1.9333322
        value: {x: -0, y: -.112608597, z: -0, w: .99363941}
        inSlope: {x: 0, y: 1.55144024, z: 0, w: .175822556}
        outSlope: {x: 0, y: 1.55144024, z: 0, w: .175822556}
        tangentMode: 0
      - time: 1.94999886
        value: {x: -0, y: -.0867124349, z: -0, w: .996233404}
        inSlope: {x: 0, y: 1.55561173, z: 0, w: .135399833}
        outSlope: {x: 0, y: 1.55561173, z: 0, w: .135399833}
        tangentMode: 0
      - time: 1.96666551
        value: {x: -0, y: -.0607549213, z: -0, w: .998152733}
        inSlope: {x: 0, y: 1.55874443, z: 0, w: .0948751867}
        outSlope: {x: 0, y: 1.55874443, z: 0, w: .0948751867}
        tangentMode: 0
      - time: 1.98333216
        value: {x: -0, y: -.0347543396, z: -0, w: .999395907}
        inSlope: {x: 0, y: 1.56080842, z: 0, w: .0542742312}
        outSlope: {x: 0, y: 1.56080842, z: 0, w: .0542742312}
        tangentMode: 0
      - time: 2
        value: {x: -0, y: -.00872616004, z: -0, w: .999961913}
        inSlope: {x: 0, y: 1.56158054, z: 0, w: .033957947}
        outSlope: {x: 0, y: 1.56158054, z: 0, w: .033957947}
        tangentMode: 0
      m_PreInfinity: 2
      m_PostInfinity: 2
    path: BuyGfx
  m_CompressedRotationCurves: []
  m_PositionCurves: []
  m_ScaleCurves: []
  m_FloatCurves:
  - curve:
      serializedVersion: 2
      m_Curve:
      - time: 0
        value: -.460000008
        inSlope: -.99000001
        outSlope: -.99000001
        tangentMode: 10
      - time: 1
        value: -1.45000005
        inSlope: .00499999523
        outSlope: .00499999523
        tangentMode: 10
      - time: 2
        value: -.449999988
        inSlope: 1
        outSlope: 1
        tangentMode: 10
      m_PreInfinity: 2
      m_PostInfinity: 2
    attribute: m_AnchoredPosition.y
    path: BuyGfx
    classID: 224
    script: {fileID: 0}
  m_PPtrCurves: []
  m_SampleRate: 60
  m_WrapMode: 0
  m_Bounds:
    m_Center: {x: 0, y: 0, z: 0}
    m_Extent: {x: 0, y: 0, z: 0}
  m_ClipBindingConstant:
    genericBindings:
    - path: 3439010823
      attribute: 2
      script: {fileID: 0}
      classID: 4
      customType: 0
      isPPtrCurve: 0
    - path: 3439010823
      attribute: 538195251
      script: {fileID: 0}
      classID: 224
      customType: 0
      isPPtrCurve: 0
    pptrCurveMapping: []
  m_AnimationClipSettings:
    serializedVersion: 2
    m_StartTime: 0
    m_StopTime: 2
    m_OrientationOffsetY: 0
    m_Level: 0
    m_CycleOffset: 0
    m_LoopTime: 1
    m_LoopBlend: 1
    m_LoopBlendOrientation: 0
    m_LoopBlendPositionY: 0
    m_LoopBlendPositionXZ: 0
    m_KeepOriginalOrientation: 0
    m_KeepOriginalPositionY: 1
    m_KeepOriginalPositionXZ: 0
    m_HeightFromFeet: 0
    m_Mirror: 0
  m_EditorCurves:
  - curve:
      serializedVersion: 2
      m_Curve:
      - time: 0
        value: -0
        inSlope: 0
        outSlope: 0
        tangentMode: 0
      - time: .0166666675
        value: -0
        inSlope: 0
        outSlope: 0
        tangentMode: 0
      - time: .0333333351
        value: -0
        inSlope: 0
        outSlope: 0
        tangentMode: 0
      - time: .0500000045
        value: -0
        inSlope: 0
        outSlope: 0
        tangentMode: 0
      - time: .0666666701
        value: -0
        inSlope: 0
        outSlope: 0
        tangentMode: 0
      - time: .0833333358
        value: -0
        inSlope: 0
        outSlope: 0
        tangentMode: 0
      - time: .100000001
        value: -0
        inSlope: 0
        outSlope: 0
        tangentMode: 0
      - time: .116666667
        value: -0
        inSlope: 0
        outSlope: 0
        tangentMode: 0
      - time: .13333334
        value: -0
        inSlope: 0
        outSlope: 0
        tangentMode: 0
      - time: .150000006
        value: -0
        inSlope: 0
        outSlope: 0
        tangentMode: 0
      - time: .166666672
        value: -0
        inSlope: 0
        outSlope: 0
        tangentMode: 0
      - time: .183333337
        value: -0
        inSlope: 0
        outSlope: 0
        tangentMode: 0
      - time: .200000003
        value: -0
        inSlope: 0
        outSlope: 0
        tangentMode: 0
      - time: .216666669
        value: -0
        inSlope: 0
        outSlope: 0
        tangentMode: 0
      - time: .233333334
        value: -0
        inSlope: 0
        outSlope: 0
        tangentMode: 0
      - time: .25
        value: -0
        inSlope: 0
        outSlope: 0
        tangentMode: 0
      - time: .266666681
        value: -0
        inSlope: 0
        outSlope: 0
        tangentMode: 0
      - time: .283333361
        value: -0
        inSlope: 0
        outSlope: 0
        tangentMode: 0
      - time: .300000042
        value: -0
        inSlope: 0
        outSlope: 0
        tangentMode: 0
      - time: .316666722
        value: -0
        inSlope: 0
        outSlope: 0
        tangentMode: 0
      - time: .333333403
        value: -0
        inSlope: 0
        outSlope: 0
        tangentMode: 0
      - time: .350000083
        value: -0
        inSlope: 0
        outSlope: 0
        tangentMode: 0
      - time: .366666764
        value: -0
        inSlope: 0
        outSlope: 0
        tangentMode: 0
      - time: .383333445
        value: -0
        inSlope: 0
        outSlope: 0
        tangentMode: 0
      - time: .400000125
        value: -0
        inSlope: 0
        outSlope: 0
        tangentMode: 0
      - time: .416666806
        value: -0
        inSlope: 0
        outSlope: 0
        tangentMode: 0
      - time: .433333486
        value: -0
        inSlope: 0
        outSlope: 0
        tangentMode: 0
      - time: .450000167
        value: -0
        inSlope: 0
        outSlope: 0
        tangentMode: 0
      - time: .466666847
        value: -0
        inSlope: 0
        outSlope: 0
        tangentMode: 0
      - time: .483333528
        value: -0
        inSlope: 0
        outSlope: 0
        tangentMode: 0
      - time: .500000179
        value: -0
        inSlope: 0
        outSlope: 0
        tangentMode: 0
      - time: .51666683
        value: -0
        inSlope: 0
        outSlope: 0
        tangentMode: 0
      - time: .53333348
        value: -0
        inSlope: 0
        outSlope: 0
        tangentMode: 0
      - time: .550000131
        value: -0
        inSlope: 0
        outSlope: 0
        tangentMode: 0
      - time: .566666782
        value: -0
        inSlope: 0
        outSlope: 0
        tangentMode: 0
      - time: .583333433
        value: -0
        inSlope: 0
        outSlope: 0
        tangentMode: 0
      - time: .600000083
        value: -0
        inSlope: 0
        outSlope: 0
        tangentMode: 0
      - time: .616666734
        value: -0
        inSlope: 0
        outSlope: 0
        tangentMode: 0
      - time: .633333385
        value: -0
        inSlope: 0
        outSlope: 0
        tangentMode: 0
      - time: .650000036
        value: -0
        inSlope: 0
        outSlope: 0
        tangentMode: 0
      - time: .666666687
        value: -0
        inSlope: 0
        outSlope: 0
        tangentMode: 0
      - time: .683333337
        value: -0
        inSlope: 0
        outSlope: 0
        tangentMode: 0
      - time: .699999988
        value: -0
        inSlope: 0
        outSlope: 0
        tangentMode: 0
      - time: .716666639
        value: -0
        inSlope: 0
        outSlope: 0
        tangentMode: 0
      - time: .73333329
        value: -0
        inSlope: 0
        outSlope: 0
        tangentMode: 0
      - time: .74999994
        value: -0
        inSlope: 0
        outSlope: 0
        tangentMode: 0
      - time: .766666591
        value: -0
        inSlope: 0
        outSlope: 0
        tangentMode: 0
      - time: .783333242
        value: -0
        inSlope: 0
        outSlope: 0
        tangentMode: 0
      - time: .799999893
        value: -0
        inSlope: 0
        outSlope: 0
        tangentMode: 0
      - time: .816666543
        value: -0
        inSlope: 0
        outSlope: 0
        tangentMode: 0
      - time: .833333194
        value: -0
        inSlope: 0
        outSlope: 0
        tangentMode: 0
      - time: .849999845
        value: -0
        inSlope: 0
        outSlope: 0
        tangentMode: 0
      - time: .866666496
        value: -0
        inSlope: 0
        outSlope: 0
        tangentMode: 0
      - time: .883333147
        value: -0
        inSlope: 0
        outSlope: 0
        tangentMode: 0
      - time: .899999797
        value: -0
        inSlope: 0
        outSlope: 0
        tangentMode: 0
      - time: .916666448
        value: -0
        inSlope: 0
        outSlope: 0
        tangentMode: 0
      - time: .933333099
        value: -0
        inSlope: 0
        outSlope: 0
        tangentMode: 0
      - time: .94999975
        value: -0
        inSlope: 0
        outSlope: 0
        tangentMode: 0
      - time: .9666664
        value: -0
        inSlope: 0
        outSlope: 0
        tangentMode: 0
      - time: .983333051
        value: -0
        inSlope: 0
        outSlope: 0
        tangentMode: 0
      - time: .999999702
        value: -0
        inSlope: 0
        outSlope: 0
        tangentMode: 0
      - time: 1.01666641
        value: -0
        inSlope: 0
        outSlope: 0
        tangentMode: 0
      - time: 1.03333306
        value: -0
        inSlope: 0
        outSlope: 0
        tangentMode: 0
      - time: 1.04999971
        value: -0
        inSlope: 0
        outSlope: 0
        tangentMode: 0
      - time: 1.06666636
        value: -0
        inSlope: 0
        outSlope: 0
        tangentMode: 0
      - time: 1.08333302
        value: -0
        inSlope: 0
        outSlope: 0
        tangentMode: 0
      - time: 1.09999967
        value: -0
        inSlope: 0
        outSlope: 0
        tangentMode: 0
      - time: 1.11666632
        value: -0
        inSlope: 0
        outSlope: 0
        tangentMode: 0
      - time: 1.13333297
        value: -0
        inSlope: 0
        outSlope: 0
        tangentMode: 0
      - time: 1.14999962
        value: -0
        inSlope: 0
        outSlope: 0
        tangentMode: 0
      - time: 1.16666627
        value: -0
        inSlope: 0
        outSlope: 0
        tangentMode: 0
      - time: 1.18333292
        value: -0
        inSlope: 0
        outSlope: 0
        tangentMode: 0
      - time: 1.19999957
        value: -0
        inSlope: 0
        outSlope: 0
        tangentMode: 0
      - time: 1.21666622
        value: -0
        inSlope: 0
        outSlope: 0
        tangentMode: 0
      - time: 1.23333287
        value: -0
        inSlope: 0
        outSlope: 0
        tangentMode: 0
      - time: 1.24999952
        value: -0
        inSlope: 0
        outSlope: 0
        tangentMode: 0
      - time: 1.26666617
        value: -0
        inSlope: 0
        outSlope: 0
        tangentMode: 0
      - time: 1.28333282
        value: -0
        inSlope: 0
        outSlope: 0
        tangentMode: 0
      - time: 1.29999948
        value: -0
        inSlope: 0
        outSlope: 0
        tangentMode: 0
      - time: 1.31666613
        value: -0
        inSlope: 0
        outSlope: 0
        tangentMode: 0
      - time: 1.33333278
        value: -0
        inSlope: 0
        outSlope: 0
        tangentMode: 0
      - time: 1.34999943
        value: -0
        inSlope: 0
        outSlope: 0
        tangentMode: 0
      - time: 1.36666608
        value: -0
        inSlope: 0
        outSlope: 0
        tangentMode: 0
      - time: 1.38333273
        value: -0
        inSlope: 0
        outSlope: 0
        tangentMode: 0
      - time: 1.39999938
        value: -0
        inSlope: 0
        outSlope: 0
        tangentMode: 0
      - time: 1.41666603
        value: -0
        inSlope: 0
        outSlope: 0
        tangentMode: 0
      - time: 1.43333268
        value: -0
        inSlope: 0
        outSlope: 0
        tangentMode: 0
      - time: 1.44999933
        value: -0
        inSlope: 0
        outSlope: 0
        tangentMode: 0
      - time: 1.46666598
        value: -0
        inSlope: 0
        outSlope: 0
        tangentMode: 0
      - time: 1.48333263
        value: -0
        inSlope: 0
        outSlope: 0
        tangentMode: 0
      - time: 1.49999928
        value: -0
        inSlope: 0
        outSlope: 0
        tangentMode: 0
      - time: 1.51666594
        value: -0
        inSlope: 0
        outSlope: 0
        tangentMode: 0
      - time: 1.53333259
        value: -0
        inSlope: 0
        outSlope: 0
        tangentMode: 0
      - time: 1.54999924
        value: -0
        inSlope: 0
        outSlope: 0
        tangentMode: 0
      - time: 1.56666589
        value: -0
        inSlope: 0
        outSlope: 0
        tangentMode: 0
      - time: 1.58333254
        value: -0
        inSlope: 0
        outSlope: 0
        tangentMode: 0
      - time: 1.59999919
        value: -0
        inSlope: 0
        outSlope: 0
        tangentMode: 0
      - time: 1.61666584
        value: -0
        inSlope: 0
        outSlope: 0
        tangentMode: 0
      - time: 1.63333249
        value: -0
        inSlope: 0
        outSlope: 0
        tangentMode: 0
      - time: 1.64999914
        value: -0
        inSlope: 0
        outSlope: 0
        tangentMode: 0
      - time: 1.66666579
        value: -0
        inSlope: 0
        outSlope: 0
        tangentMode: 0
      - time: 1.68333244
        value: -0
        inSlope: 0
        outSlope: 0
        tangentMode: 0
      - time: 1.69999909
        value: -0
        inSlope: 0
        outSlope: 0
        tangentMode: 0
      - time: 1.71666574
        value: -0
        inSlope: 0
        outSlope: 0
        tangentMode: 0
      - time: 1.7333324
        value: -0
        inSlope: 0
        outSlope: 0
        tangentMode: 0
      - time: 1.74999905
        value: -0
        inSlope: 0
        outSlope: 0
        tangentMode: 0
      - time: 1.7666657
        value: -0
        inSlope: 0
        outSlope: 0
        tangentMode: 0
      - time: 1.78333235
        value: -0
        inSlope: 0
        outSlope: 0
        tangentMode: 0
      - time: 1.799999
        value: -0
        inSlope: 0
        outSlope: 0
        tangentMode: 0
      - time: 1.81666565
        value: -0
        inSlope: 0
        outSlope: 0
        tangentMode: 0
      - time: 1.8333323
        value: -0
        inSlope: 0
        outSlope: 0
        tangentMode: 0
      - time: 1.84999895
        value: -0
        inSlope: 0
        outSlope: 0
        tangentMode: 0
      - time: 1.8666656
        value: -0
        inSlope: 0
        outSlope: 0
        tangentMode: 0
      - time: 1.88333225
        value: -0
        inSlope: 0
        outSlope: 0
        tangentMode: 0
      - time: 1.8999989
        value: -0
        inSlope: 0
        outSlope: 0
        tangentMode: 0
      - time: 1.91666555
        value: -0
        inSlope: 0
        outSlope: 0
        tangentMode: 0
      - time: 1.9333322
        value: -0
        inSlope: 0
        outSlope: 0
        tangentMode: 0
      - time: 1.94999886
        value: -0
        inSlope: 0
        outSlope: 0
        tangentMode: 0
      - time: 1.96666551
        value: -0
        inSlope: 0
        outSlope: 0
        tangentMode: 0
      - time: 1.98333216
        value: -0
        inSlope: 0
        outSlope: 0
        tangentMode: 0
      - time: 2
        value: -0
        inSlope: 0
        outSlope: 0
        tangentMode: 0
      m_PreInfinity: 2
      m_PostInfinity: 2
    attribute: m_LocalRotation.x
    path: BuyGfx
    classID: 224
    script: {fileID: 0}
  - curve:
      serializedVersion: 2
      m_Curve:
      - time: 0
        value: -0
        inSlope: -1.57068849
        outSlope: -1.57068849
        tangentMode: 0
      - time: .0166666675
        value: -.0261781421
        inSlope: -1.57021928
        outSlope: -1.57021928
        tangentMode: 0
      - time: .0333333351
        value: -.0523406453
        inSlope: -1.56873894
        outSlope: -1.56873894
        tangentMode: 0
      - time: .0500000045
        value: -.0784694478
        inSlope: -1.56617522
        outSlope: -1.56617522
        tangentMode: 0
      - time: .0666666701
        value: -.104546487
        inSlope: -1.56252933
        outSlope: -1.56252933
        tangentMode: 0
      - time: .0833333358
        value: -.130553752
        inSlope: -1.55780339
        outSlope: -1.55780339
        tangentMode: 0
      - time: .100000001
        value: -.156473264
        inSlope: -1.55200124
        outSlope: -1.55200124
        tangentMode: 0
      - time: .116666667
        value: -.182287127
        inSlope: -1.54512644
        outSlope: -1.54512644
        tangentMode: 0
      - time: .13333334
        value: -.207977489
        inSlope: -1.53718221
        outSlope: -1.53718221
        tangentMode: 0
      - time: .150000006
        value: -.233526543
        inSlope: -1.52817488
        outSlope: -1.52817488
        tangentMode: 0
      - time: .166666672
        value: -.258916646
        inSlope: -1.51811028
        outSlope: -1.51811028
        tangentMode: 0
      - time: .183333337
        value: -.284130216
        inSlope: -1.50699663
        outSlope: -1.50699663
        tangentMode: 0
      - time: .200000003
        value: -.309149861
        inSlope: -1.49483812
        outSlope: -1.49483812
        tangentMode: 0
      - time: .216666669
        value: -.333958149
        inSlope: -1.48164439
        outSlope: -1.48164439
        tangentMode: 0
      - time: .233333334
        value: -.358538002
        inSlope: -1.46742868
        outSlope: -1.46742868
        tangentMode: 0
      - time: .25
        value: -.382872432
        inSlope: -1.4521966
        outSlope: -1.4521966
        tangentMode: 0
      - time: .266666681
        value: -.406944573
        inSlope: -1.43595874
        outSlope: -1.43595874
        tangentMode: 0
      - time: .283333361
        value: -.430737764
        inSlope: -1.41872644
        outSlope: -1.41872644
        tangentMode: 0
      - time: .300000042
        value: -.454235494
        inSlope: -1.40051508
        outSlope: -1.40051508
        tangentMode: 0
      - time: .316666722
        value: -.477421641
        inSlope: -1.38133466
        outSlope: -1.38133466
        tangentMode: 0
      - time: .333333403
        value: -.500280023
        inSlope: -1.36119843
        outSlope: -1.36119843
        tangentMode: 0
      - time: .350000083
        value: -.522794962
        inSlope: -1.34011996
        outSlope: -1.34011996
        tangentMode: 0
      - time: .366666764
        value: -.544950724
        inSlope: -1.3181169
        outSlope: -1.3181169
        tangentMode: 0
      - time: .383333445
        value: -.566732228
        inSlope: -1.29520547
        outSlope: -1.29520547
        tangentMode: 0
      - time: .400000125
        value: -.588124275
        inSlope: -1.2713964
        outSlope: -1.2713964
        tangentMode: 0
      - time: .416666806
        value: -.609112144
        inSlope: -1.24671113
        outSlope: -1.24671113
        tangentMode: 0
      - time: .433333486
        value: -.629681349
        inSlope: -1.22116756
        outSlope: -1.22116756
        tangentMode: 0
      - time: .450000167
        value: -.649817765
        inSlope: -1.1947819
        outSlope: -1.1947819
        tangentMode: 0
      - time: .466666847
        value: -.669507444
        inSlope: -1.16756999
        outSlope: -1.16756999
        tangentMode: 0
      - time: .483333528
        value: -.688736796
        inSlope: -1.1395545
        outSlope: -1.1395545
        tangentMode: 0
      - time: .500000179
        value: -.70749259
        inSlope: -1.11075747
        outSlope: -1.11075747
        tangentMode: 0
      - time: .51666683
        value: -.72576201
        inSlope: -1.08119774
        outSlope: -1.08119774
        tangentMode: 0
      - time: .53333348
        value: -.743532479
        inSlope: -1.05089402
        outSlope: -1.05089402
        tangentMode: 0
      - time: .550000131
        value: -.760791779
        inSlope: -1.01986802
        outSlope: -1.01986802
        tangentMode: 0
      - time: .566666782
        value: -.777528048
        inSlope: -.988146424
        outSlope: -.988146424
        tangentMode: 0
      - time: .583333433
        value: -.793729961
        inSlope: -.955748916
        outSlope: -.955748916
        tangentMode: 0
      - time: .600000083
        value: -.809386313
        inSlope: -.922695041
        outSlope: -.922695041
        tangentMode: 0
      - time: .616666734
        value: -.824486434
        inSlope: -.889010072
        outSlope: -.889010072
        tangentMode: 0
      - time: .633333385
        value: -.839019954
        inSlope: -.8547225
        outSlope: -.8547225
        tangentMode: 0
      - time: .650000036
        value: -.852977157
        inSlope: -.819857299
        outSlope: -.819857299
        tangentMode: 0
      - time: .666666687
        value: -.866348505
        inSlope: -.784430623
        outSlope: -.784430623
        tangentMode: 0
      - time: .683333337
        value: -.87912482
        inSlope: -.748471141
        outSlope: -.748471141
        tangentMode: 0
      - time: .699999988
        value: -.891297519
        inSlope: -.712009192
        outSlope: -.712009192
        tangentMode: 0
      - time: .716666639
        value: -.902858436
        inSlope: -.675069749
        outSlope: -.675069749
        tangentMode: 0
      - time: .73333329
        value: -.913799822
        inSlope: -.637672544
        outSlope: -.637672544
        tangentMode: 0
      - time: .74999994
        value: -.924114168
        inSlope: -.599848032
        outSlope: -.599848032
        tangentMode: 0
      - time: .766666591
        value: -.933794737
        inSlope: -.561624706
        outSlope: -.561624706
        tangentMode: 0
      - time: .783333242
        value: -.942834973
        inSlope: -.52302587
        outSlope: -.52302587
        tangentMode: 0
      - time: .799999893
        value: -.951228917
        inSlope: -.484083772
        outSlope: -.484083772
        tangentMode: 0
      - time: .816666543
        value: -.958971083
        inSlope: -.444825113
        outSlope: -.444825113
        tangentMode: 0
      - time: .833333194
        value: -.966056406
        inSlope: -.405273229
        outSlope: -.405273229
        tangentMode: 0
      - time: .849999845
        value: -.972480178
        inSlope: -.365458488
        outSlope: -.365458488
        tangentMode: 0
      - time: .866666496
        value: -.978238344
        inSlope: -.32541126
        outSlope: -.32541126
        tangentMode: 0
      - time: .883333147
        value: -.98332721
        inSlope: -.285156637
        outSlope: -.285156637
        tangentMode: 0
      - time: .899999797
        value: -.987743556
        inSlope: -.244724974
        outSlope: -.244724974
        tangentMode: 0
      - time: .916666448
        value: -.991484702
        inSlope: -.204143122
        outSlope: -.204143122
        tangentMode: 0
      - time: .933333099
        value: -.994548321
        inSlope: -.163441449
        outSlope: -.163441449
        tangentMode: 0
      - time: .94999975
        value: -.996932745
        inSlope: -.122648597
        outSlope: -.122648597
        tangentMode: 0
      - time: .9666664
        value: -.998636603
        inSlope: -.0817931443
        outSlope: -.0817931443
        tangentMode: 0
      - time: .983333051
        value: -.999659181
        inSlope: -.0409019366
        outSlope: -.0409019366
        tangentMode: 0
      - time: .999999702
        value: -1
        inSlope: -3.61260027e-06
        outSlope: -3.61260027e-06
        tangentMode: 0
      - time: 1.01666641
        value: -.9996593
        inSlope: .0408697166
        outSlope: .0408697166
        tangentMode: 0
      - time: 1.03333306
        value: -.998637676
        inSlope: .0816947967
        outSlope: .0816947967
        tangentMode: 0
      - time: 1.04999971
        value: -.996936142
        inSlope: .122444749
        outSlope: .122444749
        tangentMode: 0
      - time: 1.06666636
        value: -.994556189
        inSlope: .163089186
        outSlope: .163089186
        tangentMode: 0
      - time: 1.08333302
        value: -.991499841
        inSlope: .203601316
        outSlope: .203601316
        tangentMode: 0
      - time: 1.09999967
        value: -.987769485
        inSlope: .243957862
        outSlope: .243957862
        tangentMode: 0
      - time: 1.11666632
        value: -.98336792
        inSlope: .284130245
        outSlope: .284130245
        tangentMode: 0
      - time: 1.13333297
        value: -.978298485
        inSlope: .324091613
        outSlope: .324091613
        tangentMode: 0
      - time: 1.14999962
        value: -.972564876
        inSlope: .363818765
        outSlope: .363818765
        tangentMode: 0
      - time: 1.16666627
        value: -.966171205
        inSlope: .403281242
        outSlope: .403281242
        tangentMode: 0
      - time: 1.18333292
        value: -.959122181
        inSlope: .44245404
        outSlope: .44245404
        tangentMode: 0
      - time: 1.19999957
        value: -.951422751
        inSlope: .481315732
        outSlope: .481315732
        tangentMode: 0
      - time: 1.21666622
        value: -.943078339
        inSlope: .51983583
        outSlope: .51983583
        tangentMode: 0
      - time: 1.23333287
        value: -.934094906
        inSlope: .557989419
        outSlope: .557989419
        tangentMode: 0
      - time: 1.24999952
        value: -.92447871
        inSlope: .595754981
        outSlope: .595754981
        tangentMode: 0
      - time: 1.26666617
        value: -.914236426
        inSlope: .633109212
        outSlope: .633109212
        tangentMode: 0
      - time: 1.28333282
        value: -.903375089
        inSlope: .670021772
        outSlope: .670021772
        tangentMode: 0
      - time: 1.29999948
        value: -.891902387
        inSlope: .706467748
        outSlope: .706467748
        tangentMode: 0
      - time: 1.31666613
        value: -.879826188
        inSlope: .742430806
        outSlope: .742430806
        tangentMode: 0
      - time: 1.33333278
        value: -.867154717
        inSlope: .777882457
        outSlope: .777882457
        tangentMode: 0
      - time: 1.34999943
        value: -.853896797
        inSlope: .812801301
        outSlope: .812801301
        tangentMode: 0
      - time: 1.36666608
        value: -.840061367
        inSlope: .847164035
        outSlope: .847164035
        tangentMode: 0
      - time: 1.38333273
        value: -.825658023
        inSlope: .880947351
        outSlope: .880947351
        tangentMode: 0
      - time: 1.39999938
        value: -.810696483
        inSlope: .914129853
        outSlope: .914129853
        tangentMode: 0
      - time: 1.41666603
        value: -.795187056
        inSlope: .946684778
        outSlope: .946684778
        tangentMode: 0
      - time: 1.43333268
        value: -.779140353
        inSlope: .978606701
        outSlope: .978606701
        tangentMode: 0
      - time: 1.44999933
        value: -.762566864
        inSlope: 1.00986159
        outSlope: 1.00986159
        tangentMode: 0
      - time: 1.46666598
        value: -.745478332
        inSlope: 1.04042804
        outSlope: 1.04042804
        tangentMode: 0
      - time: 1.48333263
        value: -.727885962
        inSlope: 1.07029533
        outSlope: 1.07029533
        tangentMode: 0
      - time: 1.49999928
        value: -.709801853
        inSlope: 1.09942782
        outSlope: 1.09942782
        tangentMode: 0
      - time: 1.51666594
        value: -.691238403
        inSlope: 1.12782168
        outSlope: 1.12782168
        tangentMode: 0
      - time: 1.53333259
        value: -.672207832
        inSlope: 1.15546811
        outSlope: 1.15546811
        tangentMode: 0
      - time: 1.54999924
        value: -.652722836
        inSlope: 1.1823225
        outSlope: 1.1823225
        tangentMode: 0
      - time: 1.56666589
        value: -.632797122
        inSlope: 1.20837569
        outSlope: 1.20837569
        tangentMode: 0
      - time: 1.58333254
        value: -.612443686
        inSlope: 1.23362422
        outSlope: 1.23362422
        tangentMode: 0
      - time: 1.59999919
        value: -.591676354
        inSlope: 1.25803769
        outSlope: 1.25803769
        tangentMode: 0
      - time: 1.61666584
        value: -.570509136
        inSlope: 1.2816
        outSlope: 1.2816
        tangentMode: 0
      - time: 1.63333249
        value: -.548956394
        inSlope: 1.30430222
        outSlope: 1.30430222
        tangentMode: 0
      - time: 1.64999914
        value: -.527032435
        inSlope: 1.32614088
        outSlope: 1.32614088
        tangentMode: 0
      - time: 1.66666579
        value: -.504751742
        inSlope: 1.34707999
        outSlope: 1.34707999
        tangentMode: 0
      - time: 1.68333244
        value: -.482129812
        inSlope: 1.36710262
        outSlope: 1.36710262
        tangentMode: 0
      - time: 1.69999909
        value: -.459181696
        inSlope: 1.38621974
        outSlope: 1.38621974
        tangentMode: 0
      - time: 1.71666574
        value: -.435922533
        inSlope: 1.4043988
        outSlope: 1.4043988
        tangentMode: 0
      - time: 1.7333324
        value: -.412368447
        inSlope: 1.42163563
        outSlope: 1.42163563
        tangentMode: 0
      - time: 1.74999905
        value: -.388534725
        inSlope: 1.43793011
        outSlope: 1.43793011
        tangentMode: 0
      - time: 1.7666657
        value: -.364437491
        inSlope: 1.45324731
        outSlope: 1.45324731
        tangentMode: 0
      - time: 1.78333235
        value: -.340093195
        inSlope: 1.46759534
        outSlope: 1.46759534
        tangentMode: 0
      - time: 1.799999
        value: -.315517694
        inSlope: 1.4809581
        outSlope: 1.4809581
        tangentMode: 0
      - time: 1.81666565
        value: -.290727973
        inSlope: 1.49331415
        outSlope: 1.49331415
        tangentMode: 0
      - time: 1.8333323
        value: -.265740603
        inSlope: 1.5046804
        outSlope: 1.5046804
        tangentMode: 0
      - time: 1.84999895
        value: -.240572006
        inSlope: 1.51505125
        outSlope: 1.51505125
        tangentMode: 0
      - time: 1.8666656
        value: -.215238944
        inSlope: 1.5243845
        outSlope: 1.5243845
        tangentMode: 0
      - time: 1.88333225
        value: -.18975924
        inSlope: 1.53268671
        outSlope: 1.53268671
        tangentMode: 0
      - time: 1.8999989
        value: -.164149433
        inSlope: 1.53996682
        outSlope: 1.53996682
        tangentMode: 0
      - time: 1.91666555
        value: -.138427064
        inSlope: 1.5462265
        outSlope: 1.5462265
        tangentMode: 0
      - time: 1.9333322
        value: -.112608597
        inSlope: 1.55144024
        outSlope: 1.55144024
        tangentMode: 0
      - time: 1.94999886
        value: -.0867124349
        inSlope: 1.55561173
        outSlope: 1.55561173
        tangentMode: 0
      - time: 1.96666551
        value: -.0607549213
        inSlope: 1.55874443
        outSlope: 1.55874443
        tangentMode: 0
      - time: 1.98333216
        value: -.0347543396
        inSlope: 1.56080842
        outSlope: 1.56080842
        tangentMode: 0
      - time: 2
        value: -.00872616004
        inSlope: 1.56158054
        outSlope: 1.56158054
        tangentMode: 0
      m_PreInfinity: 2
      m_PostInfinity: 2
    attribute: m_LocalRotation.y
    path: BuyGfx
    classID: 224
    script: {fileID: 0}
  - curve:
      serializedVersion: 2
      m_Curve:
      - time: 0
        value: -0
        inSlope: 0
        outSlope: 0
        tangentMode: 0
      - time: .0166666675
        value: -0
        inSlope: 0
        outSlope: 0
        tangentMode: 0
      - time: .0333333351
        value: -0
        inSlope: 0
        outSlope: 0
        tangentMode: 0
      - time: .0500000045
        value: -0
        inSlope: 0
        outSlope: 0
        tangentMode: 0
      - time: .0666666701
        value: -0
        inSlope: 0
        outSlope: 0
        tangentMode: 0
      - time: .0833333358
        value: -0
        inSlope: 0
        outSlope: 0
        tangentMode: 0
      - time: .100000001
        value: -0
        inSlope: 0
        outSlope: 0
        tangentMode: 0
      - time: .116666667
        value: -0
        inSlope: 0
        outSlope: 0
        tangentMode: 0
      - time: .13333334
        value: -0
        inSlope: 0
        outSlope: 0
        tangentMode: 0
      - time: .150000006
        value: -0
        inSlope: 0
        outSlope: 0
        tangentMode: 0
      - time: .166666672
        value: -0
        inSlope: 0
        outSlope: 0
        tangentMode: 0
      - time: .183333337
        value: -0
        inSlope: 0
        outSlope: 0
        tangentMode: 0
      - time: .200000003
        value: -0
        inSlope: 0
        outSlope: 0
        tangentMode: 0
      - time: .216666669
        value: -0
        inSlope: 0
        outSlope: 0
        tangentMode: 0
      - time: .233333334
        value: -0
        inSlope: 0
        outSlope: 0
        tangentMode: 0
      - time: .25
        value: -0
        inSlope: 0
        outSlope: 0
        tangentMode: 0
      - time: .266666681
        value: -0
        inSlope: 0
        outSlope: 0
        tangentMode: 0
      - time: .283333361
        value: -0
        inSlope: 0
        outSlope: 0
        tangentMode: 0
      - time: .300000042
        value: -0
        inSlope: 0
        outSlope: 0
        tangentMode: 0
      - time: .316666722
        value: -0
        inSlope: 0
        outSlope: 0
        tangentMode: 0
      - time: .333333403
        value: -0
        inSlope: 0
        outSlope: 0
        tangentMode: 0
      - time: .350000083
        value: -0
        inSlope: 0
        outSlope: 0
        tangentMode: 0
      - time: .366666764
        value: -0
        inSlope: 0
        outSlope: 0
        tangentMode: 0
      - time: .383333445
        value: -0
        inSlope: 0
        outSlope: 0
        tangentMode: 0
      - time: .400000125
        value: -0
        inSlope: 0
        outSlope: 0
        tangentMode: 0
      - time: .416666806
        value: -0
        inSlope: 0
        outSlope: 0
        tangentMode: 0
      - time: .433333486
        value: -0
        inSlope: 0
        outSlope: 0
        tangentMode: 0
      - time: .450000167
        value: -0
        inSlope: 0
        outSlope: 0
        tangentMode: 0
      - time: .466666847
        value: -0
        inSlope: 0
        outSlope: 0
        tangentMode: 0
      - time: .483333528
        value: -0
        inSlope: 0
        outSlope: 0
        tangentMode: 0
      - time: .500000179
        value: -0
        inSlope: 0
        outSlope: 0
        tangentMode: 0
      - time: .51666683
        value: -0
        inSlope: 0
        outSlope: 0
        tangentMode: 0
      - time: .53333348
        value: -0
        inSlope: 0
        outSlope: 0
        tangentMode: 0
      - time: .550000131
        value: -0
        inSlope: 0
        outSlope: 0
        tangentMode: 0
      - time: .566666782
        value: -0
        inSlope: 0
        outSlope: 0
        tangentMode: 0
      - time: .583333433
        value: -0
        inSlope: 0
        outSlope: 0
        tangentMode: 0
      - time: .600000083
        value: -0
        inSlope: 0
        outSlope: 0
        tangentMode: 0
      - time: .616666734
        value: -0
        inSlope: 0
        outSlope: 0
        tangentMode: 0
      - time: .633333385
        value: -0
        inSlope: 0
        outSlope: 0
        tangentMode: 0
      - time: .650000036
        value: -0
        inSlope: 0
        outSlope: 0
        tangentMode: 0
      - time: .666666687
        value: -0
        inSlope: 0
        outSlope: 0
        tangentMode: 0
      - time: .683333337
        value: -0
        inSlope: 0
        outSlope: 0
        tangentMode: 0
      - time: .699999988
        value: -0
        inSlope: 0
        outSlope: 0
        tangentMode: 0
      - time: .716666639
        value: -0
        inSlope: 0
        outSlope: 0
        tangentMode: 0
      - time: .73333329
        value: -0
        inSlope: 0
        outSlope: 0
        tangentMode: 0
      - time: .74999994
        value: -0
        inSlope: 0
        outSlope: 0
        tangentMode: 0
      - time: .766666591
        value: -0
        inSlope: 0
        outSlope: 0
        tangentMode: 0
      - time: .783333242
        value: -0
        inSlope: 0
        outSlope: 0
        tangentMode: 0
      - time: .799999893
        value: -0
        inSlope: 0
        outSlope: 0
        tangentMode: 0
      - time: .816666543
        value: -0
        inSlope: 0
        outSlope: 0
        tangentMode: 0
      - time: .833333194
        value: -0
        inSlope: 0
        outSlope: 0
        tangentMode: 0
      - time: .849999845
        value: -0
        inSlope: 0
        outSlope: 0
        tangentMode: 0
      - time: .866666496
        value: -0
        inSlope: 0
        outSlope: 0
        tangentMode: 0
      - time: .883333147
        value: -0
        inSlope: 0
        outSlope: 0
        tangentMode: 0
      - time: .899999797
        value: -0
        inSlope: 0
        outSlope: 0
        tangentMode: 0
      - time: .916666448
        value: -0
        inSlope: 0
        outSlope: 0
        tangentMode: 0
      - time: .933333099
        value: -0
        inSlope: 0
        outSlope: 0
        tangentMode: 0
      - time: .94999975
        value: -0
        inSlope: 0
        outSlope: 0
        tangentMode: 0
      - time: .9666664
        value: -0
        inSlope: 0
        outSlope: 0
        tangentMode: 0
      - time: .983333051
        value: -0
        inSlope: 0
        outSlope: 0
        tangentMode: 0
      - time: .999999702
        value: -0
        inSlope: 0
        outSlope: 0
        tangentMode: 0
      - time: 1.01666641
        value: -0
        inSlope: 0
        outSlope: 0
        tangentMode: 0
      - time: 1.03333306
        value: -0
        inSlope: 0
        outSlope: 0
        tangentMode: 0
      - time: 1.04999971
        value: -0
        inSlope: 0
        outSlope: 0
        tangentMode: 0
      - time: 1.06666636
        value: -0
        inSlope: 0
        outSlope: 0
        tangentMode: 0
      - time: 1.08333302
        value: -0
        inSlope: 0
        outSlope: 0
        tangentMode: 0
      - time: 1.09999967
        value: -0
        inSlope: 0
        outSlope: 0
        tangentMode: 0
      - time: 1.11666632
        value: -0
        inSlope: 0
        outSlope: 0
        tangentMode: 0
      - time: 1.13333297
        value: -0
        inSlope: 0
        outSlope: 0
        tangentMode: 0
      - time: 1.14999962
        value: -0
        inSlope: 0
        outSlope: 0
        tangentMode: 0
      - time: 1.16666627
        value: -0
        inSlope: 0
        outSlope: 0
        tangentMode: 0
      - time: 1.18333292
        value: -0
        inSlope: 0
        outSlope: 0
        tangentMode: 0
      - time: 1.19999957
        value: -0
        inSlope: 0
        outSlope: 0
        tangentMode: 0
      - time: 1.21666622
        value: -0
        inSlope: 0
        outSlope: 0
        tangentMode: 0
      - time: 1.23333287
        value: -0
        inSlope: 0
        outSlope: 0
        tangentMode: 0
      - time: 1.24999952
        value: -0
        inSlope: 0
        outSlope: 0
        tangentMode: 0
      - time: 1.26666617
        value: -0
        inSlope: 0
        outSlope: 0
        tangentMode: 0
      - time: 1.28333282
        value: -0
        inSlope: 0
        outSlope: 0
        tangentMode: 0
      - time: 1.29999948
        value: -0
        inSlope: 0
        outSlope: 0
        tangentMode: 0
      - time: 1.31666613
        value: -0
        inSlope: 0
        outSlope: 0
        tangentMode: 0
      - time: 1.33333278
        value: -0
        inSlope: 0
        outSlope: 0
        tangentMode: 0
      - time: 1.34999943
        value: -0
        inSlope: 0
        outSlope: 0
        tangentMode: 0
      - time: 1.36666608
        value: -0
        inSlope: 0
        outSlope: 0
        tangentMode: 0
      - time: 1.38333273
        value: -0
        inSlope: 0
        outSlope: 0
        tangentMode: 0
      - time: 1.39999938
        value: -0
        inSlope: 0
        outSlope: 0
        tangentMode: 0
      - time: 1.41666603
        value: -0
        inSlope: 0
        outSlope: 0
        tangentMode: 0
      - time: 1.43333268
        value: -0
        inSlope: 0
        outSlope: 0
        tangentMode: 0
      - time: 1.44999933
        value: -0
        inSlope: 0
        outSlope: 0
        tangentMode: 0
      - time: 1.46666598
        value: -0
        inSlope: 0
        outSlope: 0
        tangentMode: 0
      - time: 1.48333263
        value: -0
        inSlope: 0
        outSlope: 0
        tangentMode: 0
      - time: 1.49999928
        value: -0
        inSlope: 0
        outSlope: 0
        tangentMode: 0
      - time: 1.51666594
        value: -0
        inSlope: 0
        outSlope: 0
        tangentMode: 0
      - time: 1.53333259
        value: -0
        inSlope: 0
        outSlope: 0
        tangentMode: 0
      - time: 1.54999924
        value: -0
        inSlope: 0
        outSlope: 0
        tangentMode: 0
      - time: 1.56666589
        value: -0
        inSlope: 0
        outSlope: 0
        tangentMode: 0
      - time: 1.58333254
        value: -0
        inSlope: 0
        outSlope: 0
        tangentMode: 0
      - time: 1.59999919
        value: -0
        inSlope: 0
        outSlope: 0
        tangentMode: 0
      - time: 1.61666584
        value: -0
        inSlope: 0
        outSlope: 0
        tangentMode: 0
      - time: 1.63333249
        value: -0
        inSlope: 0
        outSlope: 0
        tangentMode: 0
      - time: 1.64999914
        value: -0
        inSlope: 0
        outSlope: 0
        tangentMode: 0
      - time: 1.66666579
        value: -0
        inSlope: 0
        outSlope: 0
        tangentMode: 0
      - time: 1.68333244
        value: -0
        inSlope: 0
        outSlope: 0
        tangentMode: 0
      - time: 1.69999909
        value: -0
        inSlope: 0
        outSlope: 0
        tangentMode: 0
      - time: 1.71666574
        value: -0
        inSlope: 0
        outSlope: 0
        tangentMode: 0
      - time: 1.7333324
        value: -0
        inSlope: 0
        outSlope: 0
        tangentMode: 0
      - time: 1.74999905
        value: -0
        inSlope: 0
        outSlope: 0
        tangentMode: 0
      - time: 1.7666657
        value: -0
        inSlope: 0
        outSlope: 0
        tangentMode: 0
      - time: 1.78333235
        value: -0
        inSlope: 0
        outSlope: 0
        tangentMode: 0
      - time: 1.799999
        value: -0
        inSlope: 0
        outSlope: 0
        tangentMode: 0
      - time: 1.81666565
        value: -0
        inSlope: 0
        outSlope: 0
        tangentMode: 0
      - time: 1.8333323
        value: -0
        inSlope: 0
        outSlope: 0
        tangentMode: 0
      - time: 1.84999895
        value: -0
        inSlope: 0
        outSlope: 0
        tangentMode: 0
      - time: 1.8666656
        value: -0
        inSlope: 0
        outSlope: 0
        tangentMode: 0
      - time: 1.88333225
        value: -0
        inSlope: 0
        outSlope: 0
        tangentMode: 0
      - time: 1.8999989
        value: -0
        inSlope: 0
        outSlope: 0
        tangentMode: 0
      - time: 1.91666555
        value: -0
        inSlope: 0
        outSlope: 0
        tangentMode: 0
      - time: 1.9333322
        value: -0
        inSlope: 0
        outSlope: 0
        tangentMode: 0
      - time: 1.94999886
        value: -0
        inSlope: 0
        outSlope: 0
        tangentMode: 0
      - time: 1.96666551
        value: -0
        inSlope: 0
        outSlope: 0
        tangentMode: 0
      - time: 1.98333216
        value: -0
        inSlope: 0
        outSlope: 0
        tangentMode: 0
      - time: 2
        value: -0
        inSlope: 0
        outSlope: 0
        tangentMode: 0
      m_PreInfinity: 2
      m_PostInfinity: 2
    attribute: m_LocalRotation.z
    path: BuyGfx
    classID: 224
    script: {fileID: 0}
  - curve:
      serializedVersion: 2
      m_Curve:
      - time: 0
        value: -1
        inSlope: .0205636006
        outSlope: .0205636006
        tangentMode: 0
      - time: .0166666675
        value: -.999657273
        inSlope: .0411218368
        outSlope: .0411218368
        tangentMode: 0
      - time: .0333333351
        value: -.998629272
        inSlope: .0822222158
        outSlope: .0822222158
        tangentMode: 0
      - time: .0500000045
        value: -.996916533
        inSlope: .123277903
        outSlope: .123277903
        tangentMode: 0
      - time: .0666666701
        value: -.994520009
        inSlope: .164258495
        outSlope: .164258495
        tangentMode: 0
      - time: .0833333358
        value: -.99144125
        inSlope: .205133572
        outSlope: .205133572
        tangentMode: 0
      - time: .100000001
        value: -.987682223
        inSlope: .24587813
        outSlope: .24587813
        tangentMode: 0
      - time: .116666667
        value: -.983245313
        inSlope: .286458075
        outSlope: .286458075
        tangentMode: 0
      - time: .13333334
        value: -.978133619
        inSlope: .326846778
        outSlope: .326846778
        tangentMode: 0
      - time: .150000006
        value: -.972350419
        inSlope: .367019206
        outSlope: .367019206
        tangentMode: 0
      - time: .166666672
        value: -.965899646
        inSlope: .406941205
        outSlope: .406941205
        tangentMode: 0
      - time: .183333337
        value: -.958785713
        inSlope: .446589619
        outSlope: .446589619
        tangentMode: 0
      - time: .200000003
        value: -.951013327
        inSlope: .485934079
        outSlope: .485934079
        tangentMode: 0
      - time: .216666669
        value: -.942587912
        inSlope: .524945915
        outSlope: .524945915
        tangentMode: 0
      - time: .233333334
        value: -.933515131
        inSlope: .563600123
        outSlope: .563600123
        tangentMode: 0
      - time: .25
        value: -.923801243
        inSlope: .601867795
        outSlope: .601867795
        tangentMode: 0
      - time: .266666681
        value: -.913452864
        inSlope: .639722407
        outSlope: .639722407
        tangentMode: 0
      - time: .283333361
        value: -.902477145
        inSlope: .677135587
        outSlope: .677135587
        tangentMode: 0
      - time: .300000042
        value: -.890881658
        inSlope: .71408391
        outSlope: .71408391
        tangentMode: 0
      - time: .316666722
        value: -.878674328
        inSlope: .750538707
        outSlope: .750538707
        tangentMode: 0
      - time: .333333403
        value: -.865863681
        inSlope: .786474884
        outSlope: .786474884
        tangentMode: 0
      - time: .350000083
        value: -.852458477
        inSlope: .821867466
        outSlope: .821867466
        tangentMode: 0
      - time: .366666764
        value: -.838468075
        inSlope: .85669148
        outSlope: .85669148
        tangentMode: 0
      - time: .383333445
        value: -.823902071
        inSlope: .890923619
        outSlope: .890923619
        tangentMode: 0
      - time: .400000125
        value: -.808770597
        inSlope: .924538791
        outSlope: .924538791
        tangentMode: 0
      - time: .416666806
        value: -.793084085
        inSlope: .957512021
        outSlope: .957512021
        tangentMode: 0
      - time: .433333486
        value: -.776853502
        inSlope: .989820123
        outSlope: .989820123
        tangentMode: 0
      - time: .450000167
        value: -.760090053
        inSlope: 1.02144337
        outSlope: 1.02144337
        tangentMode: 0
      - time: .466666847
        value: -.742805362
        inSlope: 1.05235672
        outSlope: 1.05235672
        tangentMode: 0
      - time: .483333528
        value: -.725011468
        inSlope: 1.08253789
        outSlope: 1.08253789
        tangentMode: 0
      - time: .500000179
        value: -.706720769
        inSlope: 1.11196983
        outSlope: 1.11196983
        tangentMode: 0
      - time: .51666683
        value: -.687945843
        inSlope: 1.14062834
        outSlope: 1.14062834
        tangentMode: 0
      - time: .53333348
        value: -.668699861
        inSlope: 1.1684947
        outSlope: 1.1684947
        tangentMode: 0
      - time: .550000131
        value: -.648996055
        inSlope: 1.19554925
        outSlope: 1.19554925
        tangentMode: 0
      - time: .566666782
        value: -.628848255
        inSlope: 1.22177243
        outSlope: 1.22177243
        tangentMode: 0
      - time: .583333433
        value: -.608270347
        inSlope: 1.24714971
        outSlope: 1.24714971
        tangentMode: 0
      - time: .600000083
        value: -.587276638
        inSlope: 1.27165973
        outSlope: 1.27165973
        tangentMode: 0
      - time: .616666734
        value: -.565881729
        inSlope: 1.29528105
        outSlope: 1.29528105
        tangentMode: 0
      - time: .633333385
        value: -.544100642
        inSlope: 1.31800652
        outSlope: 1.31800652
        tangentMode: 0
      - time: .650000036
        value: -.521948218
        inSlope: 1.33982372
        outSlope: 1.33982372
        tangentMode: 0
      - time: .666666687
        value: -.499439895
        inSlope: 1.36070025
        outSlope: 1.36070025
        tangentMode: 0
      - time: .683333337
        value: -.476591587
        inSlope: 1.38063169
        outSlope: 1.38063169
        tangentMode: 0
      - time: .699999988
        value: -.453418881
        inSlope: 1.39961195
        outSlope: 1.39961195
        tangentMode: 0
      - time: .716666639
        value: -.429937899
        inSlope: 1.41762388
        outSlope: 1.41762388
        tangentMode: 0
      - time: .73333329
        value: -.406164795
        inSlope: 1.43464351
        outSlope: 1.43464351
        tangentMode: 0
      - time: .74999994
        value: -.382116497
        inSlope: 1.45066881
        outSlope: 1.45066881
        tangentMode: 0
      - time: .766666591
        value: -.357809216
        inSlope: 1.46569455
        outSlope: 1.46569455
        tangentMode: 0
      - time: .783333242
        value: -.333260059
        inSlope: 1.479702
        outSlope: 1.479702
        tangentMode: 0
      - time: .799999893
        value: -.308485866
        inSlope: 1.49268913
        outSlope: 1.49268913
        tangentMode: 0
      - time: .816666543
        value: -.283503801
        inSlope: 1.50463939
        outSlope: 1.50463939
        tangentMode: 0
      - time: .833333194
        value: -.258331269
        inSlope: 1.51554561
        outSlope: 1.51554561
        tangentMode: 0
      - time: .849999845
        value: -.23298566
        inSlope: 1.52541137
        outSlope: 1.52541137
        tangentMode: 0
      - time: .866666496
        value: -.207484275
        inSlope: 1.53421926
        outSlope: 1.53421926
        tangentMode: 0
      - time: .883333147
        value: -.181845069
        inSlope: 1.54196501
        outSlope: 1.54196501
        tangentMode: 0
      - time: .899999797
        value: -.156085491
        inSlope: 1.54865038
        outSlope: 1.54865038
        tangentMode: 0
      - time: .916666448
        value: -.130223438
        inSlope: 1.55426455
        outSlope: 1.55426455
        tangentMode: 0
      - time: .933333099
        value: -.104276724
        inSlope: 1.55881119
        outSlope: 1.55881119
        tangentMode: 0
      - time: .94999975
        value: -.0782631114
        inSlope: 1.56229174
        outSlope: 1.56229174
        tangentMode: 0
      - time: .9666664
        value: -.0522003807
        inSlope: 1.56468701
        outSlope: 1.56468701
        tangentMode: 0
      - time: .983333051
        value: -.0261069238
        inSlope: 1.56599987
        outSlope: 1.56599987
        tangentMode: 0
      - time: .999999702
        value: -4.33125763e-07
        inSlope: 1.56625581
        outSlope: 1.56625581
        tangentMode: 0
      - time: 1.01666641
        value: .0261016488
        inSlope: 1.56543994
        outSlope: 1.56543994
        tangentMode: 0
      - time: 1.03333306
        value: .0521809421
        inSlope: 1.56355393
        outSlope: 1.56355393
        tangentMode: 0
      - time: 1.04999971
        value: .078220062
        inSlope: 1.560619
        outSlope: 1.560619
        tangentMode: 0
      - time: 1.06666636
        value: .104201525
        inSlope: 1.55663013
        outSlope: 1.55663013
        tangentMode: 0
      - time: 1.08333302
        value: .130107686
        inSlope: 1.55159497
        outSlope: 1.55159497
        tangentMode: 0
      - time: 1.09999967
        value: .15592131
        inSlope: 1.54551041
        outSlope: 1.54551041
        tangentMode: 0
      - time: 1.11666632
        value: .181624651
        inSlope: 1.53837752
        outSlope: 1.53837752
        tangentMode: 0
      - time: 1.13333297
        value: .207200512
        inSlope: 1.53021598
        outSlope: 1.53021598
        tangentMode: 0
      - time: 1.14999962
        value: .232631803
        inSlope: 1.521029
        outSlope: 1.521029
        tangentMode: 0
      - time: 1.16666627
        value: .25790143
        inSlope: 1.51081562
        outSlope: 1.51081562
        tangentMode: 0
      - time: 1.18333292
        value: .282992274
        inSlope: 1.49958694
        outSlope: 1.49958694
        tangentMode: 0
      - time: 1.19999957
        value: .307887614
        inSlope: 1.48735166
        outSlope: 1.48735166
        tangentMode: 0
      - time: 1.21666622
        value: .332570612
        inSlope: 1.47411847
        outSlope: 1.47411847
        tangentMode: 0
      - time: 1.23333287
        value: .357024848
        inSlope: 1.45989299
        outSlope: 1.45989299
        tangentMode: 0
      - time: 1.24999952
        value: .381233662
        inSlope: 1.4446919
        outSlope: 1.4446919
        tangentMode: 0
      - time: 1.26666617
        value: .405181199
        inSlope: 1.42852879
        outSlope: 1.42852879
        tangentMode: 0
      - time: 1.28333282
        value: .428851247
        inSlope: 1.41140556
        outSlope: 1.41140556
        tangentMode: 0
      - time: 1.29999948
        value: .45222801
        inSlope: 1.393332
        outSlope: 1.393332
        tangentMode: 0
      - time: 1.31666613
        value: .475295603
        inSlope: 1.37432766
        outSlope: 1.37432766
        tangentMode: 0
      - time: 1.33333278
        value: .498038888
        inSlope: 1.35440421
        outSlope: 1.35440421
        tangentMode: 0
      - time: 1.34999943
        value: .520442367
        inSlope: 1.33357418
        outSlope: 1.33357418
        tangentMode: 0
      - time: 1.36666608
        value: .542491317
        inSlope: 1.31185889
        outSlope: 1.31185889
        tangentMode: 0
      - time: 1.38333273
        value: .564170957
        inSlope: 1.28926039
        outSlope: 1.28926039
        tangentMode: 0
      - time: 1.39999938
        value: .585466623
        inSlope: 1.2658
        outSlope: 1.2658
        tangentMode: 0
      - time: 1.41666603
        value: .60636425
        inSlope: 1.24148667
        outSlope: 1.24148667
        tangentMode: 0
      - time: 1.43333268
        value: .626849473
        inSlope: 1.21635437
        outSlope: 1.21635437
        tangentMode: 0
      - time: 1.44999933
        value: .646909356
        inSlope: 1.19041204
        outSlope: 1.19041204
        tangentMode: 0
      - time: 1.46666598
        value: .666529834
        inSlope: 1.16366673
        outSlope: 1.16366673
        tangentMode: 0
      - time: 1.48333263
        value: .685698211
        inSlope: 1.13614726
        outSlope: 1.13614726
        tangentMode: 0
      - time: 1.49999928
        value: .704401374
        inSlope: 1.1078589
        outSlope: 1.1078589
        tangentMode: 0
      - time: 1.51666594
        value: .722626805
        inSlope: 1.07883561
        outSlope: 1.07883561
        tangentMode: 0
      - time: 1.53333259
        value: .740362525
        inSlope: 1.04910064
        outSlope: 1.04910064
        tangentMode: 0
      - time: 1.54999924
        value: .757596791
        inSlope: 1.01865387
        outSlope: 1.01865387
        tangentMode: 0
      - time: 1.56666589
        value: .774317622
        inSlope: .987524152
        outSlope: .987524152
        tangentMode: 0
      - time: 1.58333254
        value: .790514231
        inSlope: .955739975
        outSlope: .955739975
        tangentMode: 0
      - time: 1.59999919
        value: .80617559
        inSlope: .923312008
        outSlope: .923312008
        tangentMode: 0
      - time: 1.61666584
        value: .821291268
        inSlope: .890263557
        outSlope: .890263557
        tangentMode: 0
      - time: 1.63333249
        value: .835851014
        inSlope: .856617928
        outSlope: .856617928
        tangentMode: 0
      - time: 1.64999914
        value: .849845171
        inSlope: .822407186
        outSlope: .822407186
        tangentMode: 0
      - time: 1.66666579
        value: .863264561
        inSlope: .787640333
        outSlope: .787640333
        tangentMode: 0
      - time: 1.68333244
        value: .876099825
        inSlope: .75233531
        outSlope: .75233531
        tangentMode: 0
      - time: 1.69999909
        value: .888342381
        inSlope: .716531396
        outSlope: .716531396
        tangentMode: 0
      - time: 1.71666574
        value: .899984181
        inSlope: .680244625
        outSlope: .680244625
        tangentMode: 0
      - time: 1.7333324
        value: .911017179
        inSlope: .643498302
        outSlope: .643498302
        tangentMode: 0
      - time: 1.74999905
        value: .921434104
        inSlope: .606321096
        outSlope: .606321096
        tangentMode: 0
      - time: 1.7666657
        value: .931227863
        inSlope: .568728983
        outSlope: .568728983
        tangentMode: 0
      - time: 1.78333235
        value: .940391719
        inSlope: .530755997
        outSlope: .530755997
        tangentMode: 0
      - time: 1.799999
        value: .948919713
        inSlope: .492421865
        outSlope: .492421865
        tangentMode: 0
      - time: 1.81666565
        value: .956805766
        inSlope: .45374614
        outSlope: .45374614
        tangentMode: 0
      - time: 1.8333323
        value: .964044571
        inSlope: .41476649
        outSlope: .41476649
        tangentMode: 0
      - time: 1.84999895
        value: .970631301
        inSlope: .375506043
        outSlope: .375506043
        tangentMode: 0
      - time: 1.8666656
        value: .976561427
        inSlope: .335980952
        outSlope: .335980952
        tangentMode: 0
      - time: 1.88333225
        value: .981830657
        inSlope: .296221673
        outSlope: .296221673
        tangentMode: 0
      - time: 1.8999989
        value: .986435473
        inSlope: .256260276
        outSlope: .256260276
        tangentMode: 0
      - time: 1.91666555
        value: .990372658
        inSlope: .216118306
        outSlope: .216118306
        tangentMode: 0
      - time: 1.9333322
        value: .99363941
        inSlope: .175822556
        outSlope: .175822556
        tangentMode: 0
      - time: 1.94999886
        value: .996233404
        inSlope: .135399833
        outSlope: .135399833
        tangentMode: 0
      - time: 1.96666551
        value: .998152733
        inSlope: .0948751867
        outSlope: .0948751867
        tangentMode: 0
      - time: 1.98333216
        value: .999395907
        inSlope: .0542742312
        outSlope: .0542742312
        tangentMode: 0
      - time: 2
        value: .999961913
        inSlope: .033957947
        outSlope: .033957947
        tangentMode: 0
      m_PreInfinity: 2
      m_PostInfinity: 2
    attribute: m_LocalRotation.w
    path: BuyGfx
    classID: 224
    script: {fileID: 0}
  - curve:
      serializedVersion: 2
      m_Curve:
      - time: 0
        value: -.460000008
        inSlope: -.99000001
        outSlope: -.99000001
        tangentMode: 10
      - time: 1
        value: -1.45000005
        inSlope: .00499999523
        outSlope: .00499999523
        tangentMode: 10
      - time: 2
        value: -.449999988
        inSlope: 1
        outSlope: 1
        tangentMode: 10
      m_PreInfinity: 2
      m_PostInfinity: 2
    attribute: m_AnchoredPosition.y
    path: BuyGfx
    classID: 224
    script: {fileID: 0}
  m_EulerEditorCurves:
  - curve:
      serializedVersion: 2
      m_Curve:
      - time: 0
        value: 0
        inSlope: 0
        outSlope: 0
        tangentMode: 10
      - time: 1
        value: 0
        inSlope: 0
        outSlope: 0
        tangentMode: 10
      - time: 2
        value: 0
        inSlope: 0
        outSlope: 0
        tangentMode: 10
      m_PreInfinity: 2
      m_PostInfinity: 2
    attribute: localEulerAnglesBaked.x
    path: BuyGfx
    classID: 224
    script: {fileID: 0}
  - curve:
      serializedVersion: 2
      m_Curve:
      - time: 0
        value: 0
        inSlope: 180
        outSlope: 180
        tangentMode: 10
      - time: 1
        value: 180
        inSlope: 179.5
        outSlope: 179.5
        tangentMode: 10
      - time: 2
        value: 359
        inSlope: 179
        outSlope: 179
        tangentMode: 10
      m_PreInfinity: 2
      m_PostInfinity: 2
    attribute: localEulerAnglesBaked.y
    path: BuyGfx
    classID: 224
    script: {fileID: 0}
  - curve:
      serializedVersion: 2
      m_Curve:
      - time: 0
        value: 0
        inSlope: 0
        outSlope: 0
        tangentMode: 10
      - time: 1
        value: 0
        inSlope: 0
        outSlope: 0
        tangentMode: 10
      - time: 2
        value: 0
        inSlope: 0
        outSlope: 0
        tangentMode: 10
      m_PreInfinity: 2
      m_PostInfinity: 2
    attribute: localEulerAnglesBaked.z
    path: BuyGfx
    classID: 224
    script: {fileID: 0}
  m_HasGenericRootTransform: 0
  m_HasMotionFloatCurves: 0
  m_GenerateMotionCurves: 0
  m_Events: []
